> start,b 
e start,b A
0
ac 300 r 
+ start,b A
e start,b d
0
ac 2 r 
+ start,b d
> start,A 
e start,A c
0
ac 2 r 
+ start,A c
e start,A b
0
ac 2 r 
+ start,A b
> start,b,d 
e start,b,d b
1
ac 2 r 
repp b start,b,d 1
+ start,b,d b
> start,b,A 
e start,b,A c
0
ac 2 r 
+ start,b,A c
e start,b,A b
1
ac 2 r 
repp b start,b,A 1
+ start,b,A b
> start,A,c 
e start,A,c A
1
ac 300 r 
+ start,A,c A
> start,A,b 
e start,A,b A
1
ac 300 r 
+ start,A,b A
e start,A,b d
0
ac 2 r 
+ start,A,b d
> start,b,A,c 
e start,b,A,c A
1
ac 300 r 
+ start,b,A,c A
> start,A,c,A 
e start,A,c,A c
1
ac 2 r 
repp c start,A,c,A 1
+ start,A,c,A c
e start,A,c,A b
0
ac 1 r c
+ start,A,c,A b
> start,A,b,A 
e start,A,b,A c
0
ac 2 r 
+ start,A,b,A c
e start,A,b,A b
1
ac 2 r 
repp b start,A,b,A 1
+ start,A,b,A b
> start,b,d,b b
e start,b,d,b A
0
ac 300 r b
+ start,b,d,b A
e start,b,d,b d
1
ac 1 r b
by by start,b,d,b d
> start,b,A,b b
e start,b,A,b A
1
ac 300 r b
+ start,b,A,b A
e start,b,A,b d
0
ac 1 r b
+ start,b,A,b d
> start,A,b,d 
e start,A,b,d b
1
ac 2 r 
repp b start,A,b,d 1
+ start,A,b,d b
> start,A,b,A,c 
e start,A,b,A,c A
2
ac 300 r 
+ start,A,b,A,c A
> start,b,A,b,A b
e start,b,A,b,A c
0
ac 1 r b
+ start,b,A,b,A c
e start,b,A,b,A b
2
ac 1 r b
by by start,b,A,b,A b
> start,b,A,c,A 
e start,b,A,c,A c
1
ac 2 r 
repp c start,b,A,c,A 1
+ start,b,A,c,A c
e start,b,A,c,A b
1
ac 1 r c
by by start,b,A,c,A b
> start,A,b,A,b b
e start,A,b,A,b A
2
ac 300 r b
+ start,A,b,A,b A
e start,A,b,A,b d
0
ac 1 r b
+ start,A,b,A,b d
> start,A,c,A,b c
e start,A,c,A,b A
2
ac 300 r c
+ start,A,c,A,b A
e start,A,c,A,b d
0
ac 1 r c
+ start,A,c,A,b d
> start,b,d,b,A b
e start,b,d,b,A c
0
ac 1 r b
+ start,b,d,b,A c
e start,b,d,b,A b
2
ac 1 r b
by by start,b,d,b,A b
> start,b,A,b,d b
e start,b,A,b,d b
2
ac 1 r b
by by start,b,A,b,d b
> start,A,b,d,b b
e start,A,b,d,b A
1
ac 300 r b
+ start,A,b,d,b A
e start,A,b,d,b d
1
ac 1 r b
by by start,A,b,d,b d
> start,A,c,A,c c
e start,A,c,A,c A
2
ac 300 r c
+ start,A,c,A,c A
> start,A,c,A,b,d c
e start,A,c,A,b,d b
1
ac 1 r c
by by start,A,c,A,b,d b
> start,A,b,A,b,d b
e start,A,b,A,b,d b
2
ac 1 r b
by by start,A,b,A,b,d b
> start,A,c,A,b,A c
e start,A,c,A,b,A c
1
ac 1 r c
by by start,A,c,A,b,A c
e start,A,c,A,b,A b
1
ac 1 r c
by by start,A,c,A,b,A b
> start,b,A,b,A,c b
e start,b,A,b,A,c A
2
ac 300 r b
+ start,b,A,b,A,c A
> start,A,c,A,c,A c
e start,A,c,A,c,A c
2
ac 1 r c
by by start,A,c,A,c,A c
e start,A,c,A,c,A b
0
ac 1 r c
+ start,A,c,A,c,A b
> start,A,b,d,b,A b
e start,A,b,d,b,A c
0
ac 1 r b
+ start,A,b,d,b,A c
e start,A,b,d,b,A b
2
ac 1 r b
by by start,A,b,d,b,A b
> start,A,b,A,c,A 
e start,A,b,A,c,A c
1
ac 2 r 
repp c start,A,b,A,c,A 1
+ start,A,b,A,c,A c
e start,A,b,A,c,A b
1
ac 1 r c
by by start,A,b,A,c,A b
> start,b,d,b,A,c b
e start,b,d,b,A,c A
1
ac 300 r b
+ start,b,d,b,A,c A
> start,A,b,A,b,A b
e start,A,b,A,b,A c
0
ac 1 r b
+ start,A,b,A,b,A c
e start,A,b,A,b,A b
2
ac 1 r b
by by start,A,b,A,b,A b
> start,b,A,c,A,c c
e start,b,A,c,A,c A
2
ac 300 r c
+ start,b,A,c,A,c A
> start,A,c,A,c,A,b c
e start,A,c,A,c,A,b A
3
ac 300 r c
+ start,A,c,A,c,A,b A
e start,A,c,A,c,A,b d
0
ac 1 r c
+ start,A,c,A,c,A,b d
> start,b,A,c,A,c,A c
e start,b,A,c,A,c,A c
2
ac 1 r c
by by start,b,A,c,A,c,A c
e start,b,A,c,A,c,A b
1
ac 1 r c
by by start,b,A,c,A,c,A b
> start,A,b,d,b,A,c b
e start,A,b,d,b,A,c A
2
ac 300 r b
+ start,A,b,d,b,A,c A
> start,A,b,A,b,A,c b
e start,A,b,A,b,A,c A
3
ac 300 r b
+ start,A,b,A,b,A,c A
> start,A,b,A,c,A,c c
e start,A,b,A,c,A,c A
3
ac 300 r c
+ start,A,b,A,c,A,c A
> start,b,A,b,A,c,A b
e start,b,A,b,A,c,A c
1
ac 1 r b
by by start,b,A,b,A,c,A c
e start,b,A,b,A,c,A b
2
ac 1 r b
by by start,b,A,b,A,c,A b
> start,b,d,b,A,c,A b
e start,b,d,b,A,c,A c
1
ac 1 r b
by by start,b,d,b,A,c,A c
e start,b,d,b,A,c,A b
2
ac 1 r b
by by start,b,d,b,A,c,A b
> start,A,b,A,b,A,c,A b
e start,A,b,A,b,A,c,A c
1
ac 1 r b
by by start,A,b,A,b,A,c,A c
e start,A,b,A,b,A,c,A b
2
ac 1 r b
by by start,A,b,A,b,A,c,A b
> start,A,b,d,b,A,c,A b
e start,A,b,d,b,A,c,A c
1
ac 1 r b
by by start,A,b,d,b,A,c,A c
e start,A,b,d,b,A,c,A b
2
ac 1 r b
by by start,A,b,d,b,A,c,A b
> start,A,c,A,c,A,b,d c
e start,A,c,A,c,A,b,d b
1
ac 1 r c
by by start,A,c,A,c,A,b,d b
> start,A,b,A,c,A,c,A c
e start,A,b,A,c,A,c,A c
2
ac 1 r c
by by start,A,b,A,c,A,c,A c
e start,A,b,A,c,A,c,A b
1
ac 1 r c
by by start,A,b,A,c,A,c,A b
> start,A,c,A,c,A,b,A c
e start,A,c,A,c,A,b,A c
2
ac 1 r c
by by start,A,c,A,c,A,b,A c
e start,A,c,A,c,A,b,A b
1
ac 1 r c
by by start,A,c,A,c,A,b,A b
start,A,b,A,b,A,c,A,end
start,A,b,A,b,A,end
start,A,b,A,b,end
start,A,b,A,c,A,c,A,end
start,A,b,A,c,A,end
start,A,b,A,end
start,A,b,d,b,A,c,A,end
start,A,b,d,b,A,end
start,A,b,d,b,end
start,A,b,end
start,A,c,A,b,A,end
start,A,c,A,b,end
start,A,c,A,c,A,b,A,end
start,A,c,A,c,A,b,end
start,A,c,A,c,A,end
start,A,c,A,end
start,A,end
start,b,A,b,A,c,A,end
start,b,A,b,A,end
start,b,A,b,end
start,b,A,c,A,c,A,end
start,b,A,c,A,end
start,b,A,end
start,b,d,b,A,c,A,end
start,b,d,b,A,end
start,b,d,b,end
start,b,end
27
ans 36
wrong
